…
Next, consider the possible relationship between a high schooler’s weight and their physical activity. Plotting the data is a useful first step because it helps us quickly visualize trends, identify strong associations, and develop research questions.

Let’s create a new variable in the dataframe yrbss, called physical_3plus , which will be yes if they are physically active for at least 3 days a week, and no otherwise. You may also want to calculate the number and % of those who are and are not active for more than 3 days. Use the count() function and see if you get the same results as group_by()... summarise()

Next, consider the possible relationship between a high schooler’s weight and their physical activity. Plotting the data is a useful first step because it helps us quickly visualize trends, identify strong associations, and develop research questions.

Let’s create a new variable in the dataframe yrbss, called physical_3plus , which will be yes if they are physically active for at least 3 days a week, and no otherwise. You may also want to calculate the number and % of those who are and are not active for more than 3 days. RUse the count() function and see if you get the same results as group_by()... summarise()

#Adding a new column to represent those who do physical activity for atleast 3 days a week
yrbss <- yrbss %>%
    mutate( physical_3plus = ifelse(physically_active_7d >=3, "Yes","No"))

yrbss

## # A tibble: 13,583 × 14
##      age gender grade hispanic race        height weight helme…¹ text_…² physi…³
##    <int> <chr>  <chr> <chr>    <chr>        <dbl>  <dbl> <chr>   <chr>     <int>
##  1    14 female 9     not      Black or A…  NA      NA   never   0             4
##  2    14 female 9     not      Black or A…  NA      NA   never   <NA>          2
##  3    15 female 9     hispanic Native Haw…   1.73   84.4 never   30            7
##  4    15 female 9     not      Black or A…   1.6    55.8 never   0             0
##  5    15 female 9     not      Black or A…   1.5    46.7 did no… did no…       2
##  6    15 female 9     not      Black or A…   1.57   67.1 did no… did no…       1
##  7    15 female 9     not      Black or A…   1.65  132.  did no… <NA>          4
##  8    14 male   9     not      Black or A…   1.88   71.2 never   <NA>          4
##  9    15 male   9     not      Black or A…   1.75   63.5 never   <NA>          5
## 10    15 male   10    not      Black or A…   1.37   97.1 did no… <NA>          0
## # … with 13,573 more rows, 4 more variables: hours_tv_per_school_day <chr>,
## #   strength_training_7d <int>, school_night_hours_sleep <chr>,
## #   physical_3plus <chr>, and abbreviated variable names ¹​helmet_12m,
## #   ²​text_while_driving_30d, ³​physically_active_7d
## # ℹ Use `print(n = ...)` to see more rows, and `colnames()` to see all variable names
…
  # assume independence, i.e, there is no difference
  hypothesize(null = "independence") %>%
  
  # generate 1000 reps, of type "permute"
  generate(reps = 1000, type = "permute") %>%
  
  # calculate statistic of difference, namely "diff in means"
  calculate(stat = "diff in means", order = c("Yes", "No"))

null_dist

## Response: weight (numeric)
## Explanatory: physical_3plus (factor)
## Null Hypothesis: independence
## # A tibble: 1,000 × 2
##    replicate    stat
##        <int>   <dbl>
##  1         1 -0.393 
##  2         2  0.362 
##  3         3  0.152 
##  4         4 -1.02  
##  5         5 -0.139 
##  6         6 -0.322 
##  7         7  0.0996
##  8         8  0.553 
##  9         9 -0.483 
## 10        10  0.551 
## # … with 990 more rows
## # ℹ Use `print(n = ...)` to see more rows
…
